<?xml version="1.0" encoding="UTF-8"?>
<svg width="200px" height="32px" viewBox="0 0 200 32" version="1.1" xmlns="http://www.w3.org/2000/svg" xmlns:xlink="http://www.w3.org/1999/xlink">
    <!-- Generator: Sketch 42 (36781) - http://www.bohemiancoding.com/sketch -->
    <title>logo-sbc-news-colour</title>
    <desc>Created with Sketch.</desc>
    <defs></defs>
    <g id="Website---Desktop" stroke="none" stroke-width="1" fill="none" fill-rule="evenodd">
        <g id="SBC-Global---Website---Home" transform="translate(-931.000000, -1745.000000)">
            <g id="sbc-news" transform="translate(0.000000, 1680.000000)">
                <g id="content" transform="translate(631.000000, 65.000000)">
                    <g id="logo-sbc-news" transform="translate(300.000000, 0.000000)">
                        <g id="logo-sbc-news-colour">
                            <path d="M84.1278898,0.377848062 C84.3388424,0.406664599 84.5286292,0.458674935 84.6979557,0.536690439 C84.8665766,0.612597416 85.0281423,0.722240827 85.1840638,0.861403618 C85.3385742,1.00197209 85.5142504,1.19173953 85.711798,1.4300031 L100.325379,19.8388506 C100.269643,19.2498687 100.227311,18.677755 100.19909,18.1246181 C100.170869,17.5707783 100.156758,17.0478636 100.156758,16.5572796 L100.156758,0.336380362 L106.450765,0.336380362 L106.450765,30.989445 L102.733343,30.989445 C102.184443,30.989445 101.723028,30.9015897 101.349805,30.7265819 C100.977286,30.5508713 100.60759,30.2465406 100.241422,29.8114811 L85.7322583,11.5502305 C85.7745899,12.082985 85.8098663,12.6058997 85.8387929,13.1168661 C85.8663084,13.6292382 85.880419,14.1092796 85.880419,14.5583959 L85.880419,30.989445 L79.5871178,30.989445 L79.5871178,0.336380362 L83.3468714,0.336380362 C83.6558922,0.336380362 83.9169372,0.350437209 84.1278898,0.377848062" id="Fill-36" fill="#B51F1F"></path>
                            <polygon id="Fill-37" fill="#B51F1F" points="130.525252 0.336661499 130.525252 5.80618088 117.897024 5.80618088 117.897024 12.9597106 127.568389 12.9597106 127.568389 18.2190801 117.897024 18.2190801 117.897024 25.5195039 130.525252 25.5195039 130.525252 30.9890233 110.71617 30.9890233 110.71617 0.336661499"></polygon>
                            <path d="M132.869578,0.336661499 L138.867263,0.336661499 C139.486716,0.336661499 140.003867,0.477229974 140.419422,0.75696124 C140.834978,1.03739535 141.1059,1.40990181 141.232895,1.87237209 L145.45618,17.8606305 C145.58388,18.380031 145.710169,18.933168 145.836459,19.5235556 C145.963454,20.1125375 146.089743,20.7303359 146.216738,21.3755452 C146.470022,20.0570129 146.779748,18.8860775 147.146623,17.8606305 L152.12976,1.87237209 C152.256755,1.47878036 152.527677,1.12525065 152.943233,0.808971576 C153.358083,0.494098191 153.861829,0.336661499 154.45306,0.336661499 L156.564703,0.336661499 C157.184156,0.336661499 157.684374,0.480744186 158.063948,0.766801034 C158.444932,1.05426357 158.732787,1.42325581 158.930335,1.87237209 L163.871846,17.8606305 C164.238015,18.843907 164.547741,19.958615 164.801731,21.2061602 C164.91391,20.5897674 165.029616,20.0000827 165.149556,19.4392145 C165.269495,18.8790491 165.392963,18.3526202 165.519252,17.8606305 L169.743242,1.87237209 C169.855421,1.46542636 170.123521,1.10838243 170.545427,0.799131783 C170.968037,0.490583979 171.475311,0.336661499 172.066543,0.336661499 L177.683949,0.336661499 L168.1805,30.9890233 L161.718578,30.9890233 L155.931845,11.9918966 C155.720187,11.3888579 155.51629,10.6937468 155.318742,9.90867183 C155.1219,10.6937468 154.917297,11.3888579 154.70705,11.9918966 L148.835654,30.9890233 L142.373027,30.9890233 L132.869578,0.336661499 Z" id="Fill-38" fill="#B51F1F"></path>
                            <path d="M197.281303,6.56307183 C197.07035,6.89973333 196.848815,7.15345943 196.615991,7.32143876 C196.383872,7.48871525 196.084729,7.57305633 195.71856,7.57305633 C195.394724,7.57305633 195.046193,7.47184703 194.673675,7.26872558 C194.299746,7.06490129 193.87784,6.83718036 193.405843,6.58485995 C192.933845,6.33253953 192.395528,6.10411576 191.790891,5.90099432 C191.184844,5.69787287 190.494838,5.59666357 189.720875,5.59666357 C188.383196,5.59666357 187.387697,5.8792062 186.732263,6.44780568 C186.078239,7.01640517 185.750875,7.78461189 185.750875,8.75102016 C185.750875,9.3688186 185.947011,9.8811907 186.342106,10.2874336 C186.73579,10.6936765 187.253647,11.0443948 187.89356,11.3395886 C188.534179,11.6340796 189.266516,11.9039711 190.090571,12.149263 C190.913921,12.394555 191.75491,12.6686636 192.613536,12.9701829 C193.472868,13.2709995 194.313856,13.6259349 195.137912,14.0321778 C195.961262,14.4391235 196.693599,14.9578212 197.334217,15.5896765 C197.974836,16.2208289 198.491987,16.9883328 198.886377,17.892891 C199.280061,18.7981519 199.477608,19.8875576 199.477608,21.1639194 C199.477608,22.5815525 199.23138,23.9071132 198.738216,25.1406016 C198.245053,26.3740899 197.531059,27.4522501 196.594825,28.3694594 C195.658591,29.2880744 194.504348,30.0112992 193.132098,30.5370253 C191.758437,31.0634543 190.199222,31.3256145 188.453749,31.3256145 C187.496348,31.3256145 186.52131,31.2279194 185.529339,31.0311235 C184.536663,30.8350305 183.575735,30.5581106 182.64585,30.2003638 C181.716671,29.8419142 180.843229,29.4188031 180.026934,28.9275163 C179.210639,28.4369323 178.499468,27.8894181 177.894126,27.2863793 L180.006473,23.9626377 C180.175094,23.7243742 180.397335,23.5240641 180.671785,23.3624103 C180.946235,23.2014594 181.245379,23.1206326 181.569216,23.1206326 C181.991827,23.1206326 182.417259,23.2541726 182.846925,23.5205499 C183.275886,23.7869271 183.761288,24.0814181 184.303133,24.4047256 C184.845683,24.7273302 185.468664,25.0218212 186.17278,25.2881984 C186.87619,25.5538729 187.707301,25.6874129 188.665407,25.6874129 C189.960754,25.6874129 190.966836,25.4034646 191.684357,24.8362708 C192.402583,24.2676713 192.761697,23.3666274 192.761697,22.1317333 C192.761697,21.4162398 192.564149,20.8349891 192.170465,20.3858729 C191.776075,19.9367566 191.258924,19.564953 190.618306,19.270462 C189.976981,18.9759711 189.248878,18.7166222 188.432583,18.4917127 C187.616288,18.2682088 186.778122,18.0194026 185.919495,17.7452941 C185.060164,17.4718884 184.222703,17.1359297 183.406408,16.7353096 C182.589408,16.3360951 181.861304,15.8096661 181.21998,15.1581313 C180.580067,14.5058935 180.062916,13.6927049 179.668526,12.7171597 C179.274136,11.7430202 179.077294,10.539754 179.077294,9.10946977 C179.077294,7.9589168 179.309413,6.83718036 179.77365,5.74355762 C180.238592,4.64923204 180.921542,3.67438966 181.8225,2.81903049 C182.722753,1.96367132 183.829019,1.27910284 185.138477,0.766730749 C186.44723,0.255764341 187.946475,-7.02842377e-05 189.636917,-7.02842377e-05 C190.579502,-7.02842377e-05 191.498098,0.073025323 192.392,0.220622222 C193.286609,0.367516279 194.135358,0.585397416 194.936836,0.872859948 C195.739726,1.16032248 196.488996,1.50471525 197.186057,1.90392972 C197.883117,2.30314419 198.506098,2.75577468 199.055703,3.26111835 L197.281303,6.56307183 Z" id="Fill-39" fill="#B51F1F"></path>
                            <path d="M19.3868245,6.65781499 C19.1758719,6.99447649 18.9543365,7.24820258 18.7222181,7.41618191 C18.4900997,7.5834584 18.1902507,7.66779948 17.8240822,7.66779948 C17.5002452,7.66779948 17.1524204,7.56659018 16.7791966,7.36346873 C16.4052673,7.16034729 15.9833621,6.93192351 15.5120701,6.6796031 C15.0400725,6.42728269 14.5017554,6.19885891 13.8964132,5.99573747 C13.291071,5.79261602 12.60036,5.69140672 11.8263969,5.69140672 C10.4887176,5.69140672 9.49321897,5.97394935 8.83848988,6.54254884 C8.1837608,7.11114832 7.85639625,7.87935504 7.85639625,8.84576331 C7.85639625,9.46356176 8.0532383,9.97593385 8.44762791,10.3821767 C8.84201752,10.7884196 9.35916883,11.139138 9.99978738,11.4343318 C10.6404059,11.7288227 11.3720375,11.9987142 12.196093,12.2440062 C13.0201486,12.4892982 13.8604313,12.7634067 14.7197632,13.0649261 C15.5783896,13.3657426 16.4200834,13.720678 17.2434334,14.1269209 C18.0667834,14.5338667 18.7991205,15.0525643 19.4404446,15.6844196 C20.0803576,16.3155721 20.5982144,17.083076 20.9918985,17.9876341 C21.3862881,18.8928951 21.5831302,19.9823008 21.5831302,21.2586625 C21.5831302,22.6762956 21.3369012,24.0018563 20.8444434,25.2353447 C20.35128,26.4688331 19.6365811,27.5469933 18.7003467,28.4642026 C17.7648179,29.3828176 16.6098701,30.1060424 15.2376201,30.6317685 C13.8639589,31.1581974 12.3047442,31.4203576 10.5592703,31.4203576 C9.60187013,31.4203576 8.6275373,31.3226625 7.63486077,31.1258667 C6.64218423,30.9297736 5.68125642,30.6528537 4.75207732,30.295107 C3.82289822,29.9366574 2.94945575,29.5135463 2.13245545,29.0222594 C1.31616068,28.5316755 0.605694956,27.9841612 -0.000352763516,27.3811225 L2.11199517,24.0573809 C2.28132166,23.8191173 2.50285714,23.6188072 2.77730716,23.4571535 C3.05175717,23.2962026 3.35090063,23.2153757 3.67473754,23.2153757 C4.09734823,23.2153757 4.52278103,23.3489158 4.95244699,23.615293 C5.38140743,23.8816703 5.86751555,24.1761612 6.40936031,24.4994687 C6.95120507,24.8220734 7.57489097,25.1165643 8.27830142,25.3829416 C8.9824174,25.648616 9.81282271,25.7821561 10.7709284,25.7821561 C12.066276,25.7821561 13.0723576,25.4982078 13.7905841,24.931014 C14.5088106,24.3624145 14.8672184,23.4613705 14.8672184,22.2264765 C14.8672184,21.5109829 14.6703763,20.9304351 14.2759867,20.480616 C13.8823026,20.0314997 13.3644458,19.6596961 12.7245328,19.3652052 C12.0832087,19.0707142 11.3543993,18.8113654 10.5381045,18.5864558 C9.72180973,18.3629519 8.88364361,18.1141457 8.02501722,17.8400372 C7.16639082,17.5666315 6.32893023,17.2306729 5.51192993,16.8300527 C4.69563516,16.4308382 3.96682573,15.9044093 3.32620719,15.2528744 C2.68558864,14.6006367 2.16843733,13.7874481 1.77404772,12.8126057 C1.37965811,11.8377633 1.18281607,10.6344972 1.18281607,9.20421292 C1.18281607,8.05365995 1.41493446,6.93192351 1.87987677,5.83830078 C2.34411356,4.74397519 3.02706373,3.76913282 3.92802175,2.91377364 C4.82897976,2.05841447 5.93454062,1.37384599 7.24399879,0.861473902 C8.55345696,0.350507494 10.0527019,0.0946728682 11.7424391,0.0946728682 C12.6850233,0.0946728682 13.6036195,0.167768475 14.4982277,0.315365375 C15.3921305,0.462259432 16.2408795,0.680140568 17.0430637,0.967603101 C17.845248,1.25576848 18.5952232,1.5994584 19.2915784,1.99867287 C19.9893446,2.39788734 20.6116195,2.85051783 21.161225,3.3558615 L19.3868245,6.65781499 Z" id="Fill-40" fill="#1D1D1B"></path>
                            <path d="M32.0787619,18.0820961 L32.0787619,25.7191814 L37.1049365,25.7191814 C38.0482262,25.7191814 38.8186617,25.600401 39.4169486,25.3607318 C40.0152355,25.1238739 40.484411,24.8146233 40.8223584,24.4350884 C41.1596004,24.057662 41.3917188,23.629631 41.5187136,23.152401 C41.645003,22.6765767 41.7085004,22.1923183 41.7085004,21.7003287 C41.7085004,21.1401633 41.6351256,20.6355225 41.4869649,20.1857034 C41.3388042,19.7372899 41.08552,19.3584579 40.7271123,19.0499101 C40.367999,18.7420651 39.8924738,18.5038016 39.3012422,18.3344165 C38.709305,18.1664372 37.9635629,18.0820961 37.0626049,18.0820961 L32.0787619,18.0820961 Z M32.0787619,13.3273674 L35.7954783,13.3273674 C36.583552,13.3273674 37.2947233,13.2711401 37.9282866,13.1593881 C38.5618498,13.0476362 39.1008725,12.8515432 39.5439435,12.5704062 C39.9870144,12.2892693 40.3249619,11.9034088 40.5577858,11.4128248 C40.7899042,10.9222408 40.9063162,10.3058481 40.9063162,9.56153798 C40.9063162,8.8319876 40.8145976,8.22613747 40.6318661,7.74258191 C40.4484291,7.25832351 40.1669238,6.86894884 39.7866448,6.57445788 C39.4070712,6.27996693 38.9244907,6.06911421 38.3403143,5.94330543 C37.756138,5.8167938 37.0626049,5.75353798 36.2604207,5.75353798 L32.0787619,5.75353798 L32.0787619,13.3273674 Z M24.9402394,31.0839773 L24.9402394,0.431615504 L36.2604207,0.431615504 C38.3861736,0.431615504 40.1951449,0.627708527 41.6880401,1.02059742 C43.1802298,1.41278346 44.3979694,1.96662326 45.3405535,2.6821168 C46.2845487,3.39690749 46.970321,4.2677292 47.4006925,5.29036486 C47.8296529,6.3144062 48.0441331,7.45793075 48.0441331,8.72023566 C48.0441331,9.4076155 47.9460649,10.0710987 47.7485173,10.7085767 C47.5509697,11.3467576 47.2419489,11.9462822 46.8193382,12.5078532 C46.397433,13.0680186 45.8548828,13.5768765 45.1930984,14.0323183 C44.531314,14.4877602 43.7361851,14.8841633 42.807006,15.2208248 C44.8346907,15.7128145 46.3339356,16.508432 47.3054463,17.6083804 C48.2769571,18.7104372 48.7616541,20.1231504 48.7616541,21.8479256 C48.7616541,23.152401 48.5090754,24.365507 48.0018015,25.4879463 C47.4959386,26.6096827 46.7523131,27.5880393 45.7737471,28.4223132 C44.7951812,29.2579928 43.5880244,29.9095276 42.1522769,30.3797292 C40.7158239,30.8492279 39.0754735,31.0839773 37.2319314,31.0839773 L24.9402394,31.0839773 Z" id="Fill-41" fill="#1D1D1B"></path>
                            <path d="M73.1119319,23.1523307 C73.2812584,23.1523307 73.4498793,23.1839587 73.6192058,23.2472145 C73.7878268,23.3097674 73.9493924,23.4194109 74.1046084,23.5733333 L76.9344773,26.540031 C75.6955719,28.1530543 74.1427069,29.3696744 72.2779989,30.1905943 C70.4118799,31.0101085 68.2049914,31.4205685 65.6573333,31.4205685 C63.3199222,31.4205685 61.225918,31.0248682 59.3739095,30.2327649 C57.5226066,29.4392558 55.9528089,28.3456331 54.6652221,26.9497881 C53.3769297,25.554646 52.3870753,23.8987494 51.6977754,21.9849096 C51.00777,20.0703669 50.6627673,17.9906563 50.6627673,15.7464806 C50.6627673,13.4608372 51.0359911,11.3607442 51.7824387,9.44620155 C52.5281807,7.53095607 53.5772994,5.87927649 54.9290892,4.49186563 C56.280879,3.10234625 57.899358,2.02278036 59.7859373,1.25105943 C61.6725166,0.480744186 63.7488826,0.0948837209 66.0164465,0.0948837209 C67.1706887,0.0948837209 68.2579059,0.196093023 69.2788035,0.39921447 C70.2997011,0.60303876 71.2535737,0.883472868 72.1411267,1.2405168 C73.0279741,1.59896641 73.8442689,2.02910594 74.5907165,2.53515245 C75.3364586,3.03979328 75.9982429,3.58660465 76.5753641,4.17558656 L74.1681058,7.39530749 C74.0128899,7.59140052 73.8301584,7.76992248 73.6192058,7.93157623 C73.4075477,8.09252713 73.1119319,8.17335401 72.7323583,8.17335401 C72.4783686,8.17335401 72.2391949,8.11782946 72.0134263,8.00467183 C71.7890687,7.8929199 71.5491895,7.75586563 71.2959053,7.59491473 C71.0426211,7.43396382 70.7639379,7.25825323 70.4619723,7.06848579 C70.1585957,6.87942119 69.7994825,6.70371059 69.3846326,6.54275969 C68.9690771,6.38180879 68.4836745,6.24475452 67.9270137,6.13300258 C67.3710584,6.01984496 66.719857,5.96361757 65.9741149,5.96361757 C64.7916516,5.96361757 63.7100786,6.18149871 62.7329237,6.61655814 C61.7536522,7.05161757 60.9091363,7.68628424 60.1979651,8.52055814 C59.4867938,9.35483204 58.9378938,10.3788734 58.551265,11.5919793 C58.1632251,12.8057881 57.9699107,14.1903876 57.9699107,15.7464806 C57.9699107,17.3173333 58.1843909,18.7138811 58.6140569,19.9333127 C59.0437229,21.153447 59.6278992,22.1810026 60.3672916,23.0152765 C61.1059784,23.8509561 61.9681324,24.4856227 62.9544592,24.9192765 C63.9393749,25.3543359 64.9955489,25.5722171 66.12157,25.5722171 C66.7692439,25.5722171 67.361181,25.5398863 67.8959705,25.4773333 C68.43076,25.4147804 68.9302732,25.3086512 69.3952155,25.1610543 C69.8594523,25.0141602 70.2961735,24.8180672 70.7046736,24.5727752 C71.1124683,24.3267804 71.5280237,24.0154212 71.9506344,23.6358863 C72.1199609,23.4960207 72.3026924,23.3807545 72.4995344,23.289385 C72.6963764,23.1980155 72.9009793,23.1523307 73.1119319,23.1523307" id="Fill-42" fill="#1D1D1B"></path>
                        </g>
                    </g>
                </g>
            </g>
        </g>
    </g>
</svg>