<?xml version="1.0" encoding="UTF-8"?>
<svg width="22px" height="51px" viewBox="0 0 22 51" version="1.1" xmlns="http://www.w3.org/2000/svg" xmlns:xlink="http://www.w3.org/1999/xlink">
    <!-- Generator: Sketch 42 (36781) - http://www.bohemiancoding.com/sketch -->
    <title>arrow-nobg</title>
    <desc>Created with Sketch.</desc>
    <defs></defs>
    <g id="Website---Desktop" stroke="none" stroke-width="1" fill="none" fill-rule="evenodd">
        <g id="SBC-Global---Website---Home" transform="translate(-1398.000000, -5175.000000)" fill="#01579B">
            <g id="testimonials" transform="translate(0.000000, 4912.000000)">
                <g id="arrow-nobg" transform="translate(1409.000000, 288.500000) rotate(-180.000000) translate(-1409.000000, -288.500000) translate(1398.000000, 263.000000)">
                    <polygon id="arrow" transform="translate(11.000151, 25.039695) rotate(-180.000000) translate(-11.000151, -25.039695) " points="2.78468125 0 -2.27373675e-13 2.15233048 17.5323683 24.837396 -2.27373675e-13 47.5228386 2.76922128 50.0793909 22.0003017 24.8630369"></polygon>
                </g>
            </g>
        </g>
    </g>
</svg>